<?xml version="1.0" encoding="UTF-8"?>
<svg width="36px" height="36px" viewBox="0 0 36 36" version="1.1" xmlns="http://www.w3.org/2000/svg" xmlns:xlink="http://www.w3.org/1999/xlink">
    <!-- Generator: Sketch 48.2 (47327) - http://www.bohemiancoding.com/sketch -->
    <title>Group</title>
    <desc>Created with Sketch.</desc>
    <defs>
        <rect id="path-1" x="0" y="0" width="32" height="32" rx="4"></rect>
        <filter x="-10.9%" y="-7.8%" width="121.9%" height="121.9%" filterUnits="objectBoundingBox" id="filter-2">
            <feOffset dx="0" dy="1" in="SourceAlpha" result="shadowOffsetOuter1"></feOffset>
            <feGaussianBlur stdDeviation="1" in="shadowOffsetOuter1" result="shadowBlurOuter1"></feGaussianBlur>
            <feColorMatrix values="0 0 0 0 0   0 0 0 0 0   0 0 0 0 0  0 0 0 0.25 0" type="matrix" in="shadowBlurOuter1"></feColorMatrix>
        </filter>
    </defs>
    <g id="webcast-landing-page" stroke="none" stroke-width="1" fill="none" fill-rule="evenodd" transform="translate(-234.000000, -297.000000)">
        <g id="Group-2" transform="translate(235.000000, 272.000000)">
            <g id="Group" transform="translate(1.000000, 26.000000)">
                <g id="Rectangle-3">
                    <use fill="black" fill-opacity="1" filter="url(#filter-2)" xlink:href="#path-1"></use>
                    <use fill="#FFFFFF" fill-rule="evenodd" xlink:href="#path-1"></use>
                </g>
                <path d="M4,0 L28,0 C30.209139,-4.05812251e-16 32,1.790861 32,4 L32,10 L0,10 L0,4 C-2.705415e-16,1.790861 1.790861,4.05812251e-16 4,0 Z" id="Rectangle-5" fill="#E24329"></path>
                <circle id="Oval-2" fill="#A62D19" cx="6" cy="5" r="2"></circle>
                <circle id="Oval-2" fill="#A62D19" cx="26" cy="5" r="2"></circle>
                <path d="M3,22 L9,22 C9.55228475,22 10,22.4477153 10,23 L10,29 C10,29.5522847 9.55228475,30 9,30 L4,30 C2.8954305,30 2,29.1045695 2,28 L2,23 C2,22.4477153 2.44771525,22 3,22 Z" id="Rectangle-4" fill="#DDDDDD"></path>
                <rect id="Rectangle-4" fill="#DDDDDD" x="12" y="22" width="8" height="8" rx="1"></rect>
                <path d="M23,22 L29,22 C29.5522847,22 30,22.4477153 30,23 L30,28 C30,29.1045695 29.1045695,30 28,30 L23,30 C22.4477153,30 22,29.5522847 22,29 L22,23 C22,22.4477153 22.4477153,22 23,22 Z" id="Rectangle-4" fill="#FDBC60"></path>
                <rect id="Rectangle-4" fill="#DDDDDD" x="2" y="12" width="8" height="8" rx="1"></rect>
                <rect id="Rectangle-4" fill="#37B96D" x="12" y="12" width="8" height="8" rx="1"></rect>
                <rect id="Rectangle-4" fill="#DDDDDD" x="22" y="12" width="8" height="8" rx="1"></rect>
            </g>
        </g>
    </g>
</svg>