<?xml version="1.0" encoding="UTF-8"?>
<svg width="36px" height="36px" viewBox="0 0 36 36" version="1.1" xmlns="http://www.w3.org/2000/svg" xmlns:xlink="http://www.w3.org/1999/xlink">
    <!-- Generator: Sketch 48.2 (47327) - http://www.bohemiancoding.com/sketch -->
    <title>Group 3</title>
    <desc>Created with Sketch.</desc>
    <defs>
        <path d="M16,2 C8.2680135,2 2,8.2680135 2,16 C2,23.7319865 8.2680135,30 16,30 C23.7319865,30 30,23.7319865 30,16 C30,8.2680135 23.7319865,2 16,2 Z M16,0 C24.836556,0 32,7.163444 32,16 C32,24.836556 24.836556,32 16,32 C7.163444,32 0,24.836556 0,16 C0,7.163444 7.163444,0 16,0 Z" id="path-1"></path>
        <filter x="-10.9%" y="-7.8%" width="121.9%" height="121.9%" filterUnits="objectBoundingBox" id="filter-2">
            <feOffset dx="0" dy="1" in="SourceAlpha" result="shadowOffsetOuter1"></feOffset>
            <feGaussianBlur stdDeviation="1" in="shadowOffsetOuter1" result="shadowBlurOuter1"></feGaussianBlur>
            <feColorMatrix values="0 0 0 0 0   0 0 0 0 0   0 0 0 0 0  0 0 0 0.25 0" type="matrix" in="shadowBlurOuter1"></feColorMatrix>
        </filter>
        <path d="M17.0606602,14.9393398 C17.6464466,15.5251263 17.6464466,16.4748737 17.0606602,17.0606602 C16.4748737,17.6464466 15.5251263,17.6464466 14.9393398,17.0606602 L9.93933983,12.0606602 C9.35355339,11.4748737 9.35355339,10.5251263 9.93933983,9.93933983 C10.5251263,9.35355339 11.4748737,9.35355339 12.0606602,9.93933983 L17.0606602,14.9393398 Z" id="path-3"></path>
        <filter x="-43.8%" y="-31.2%" width="187.5%" height="187.5%" filterUnits="objectBoundingBox" id="filter-4">
            <feOffset dx="0" dy="1" in="SourceAlpha" result="shadowOffsetOuter1"></feOffset>
            <feGaussianBlur stdDeviation="1" in="shadowOffsetOuter1" result="shadowBlurOuter1"></feGaussianBlur>
            <feColorMatrix values="0 0 0 0 0   0 0 0 0 0   0 0 0 0 0  0 0 0 0.25 0" type="matrix" in="shadowBlurOuter1"></feColorMatrix>
        </filter>
        <path d="M15.5,16.8662178 C15.2010993,16.6933131 15,16.3701412 15,16 C15,15.6298588 15.2010993,15.3066869 15.5,15.1337822 L15.5,12 C15.5,11.7238576 15.7238576,11.5 16,11.5 C16.2761424,11.5 16.5,11.7238576 16.5,12 L16.5,15.1337822 C16.7989007,15.3066869 17,15.6298588 17,16 C17,16.3701412 16.7989007,16.6933131 16.5,16.8662178 L16.5,28 C16.5,28.2761424 16.2761424,28.5 16,28.5 C15.7238576,28.5 15.5,28.2761424 15.5,28 L15.5,16.8662178 Z" id="path-5"></path>
        <filter x="-175.0%" y="-14.7%" width="450.0%" height="141.2%" filterUnits="objectBoundingBox" id="filter-6">
            <feOffset dx="0" dy="1" in="SourceAlpha" result="shadowOffsetOuter1"></feOffset>
            <feGaussianBlur stdDeviation="1" in="shadowOffsetOuter1" result="shadowBlurOuter1"></feGaussianBlur>
            <feColorMatrix values="0 0 0 0 0   0 0 0 0 0   0 0 0 0 0  0 0 0 0.25 0" type="matrix" in="shadowBlurOuter1"></feColorMatrix>
        </filter>
    </defs>
    <g id="webcast-landing-page" stroke="none" stroke-width="1" fill="none" fill-rule="evenodd" transform="translate(-468.000000, -297.000000)">
        <g id="Group-2" transform="translate(235.000000, 272.000000)">
            <g id="Group-3" transform="translate(235.000000, 26.000000)">
                <circle id="Oval" fill="#2E2E2E" cx="16" cy="16" r="15"></circle>
                <g id="Rectangle-3" fill-rule="nonzero">
                    <use fill="black" fill-opacity="1" filter="url(#filter-2)" xlink:href="#path-1"></use>
                    <use fill="#FFFFFF" fill-rule="evenodd" xlink:href="#path-1"></use>
                </g>
                <path d="M16.7071068,16.7071068 C16.3165825,17.0976311 15.6834175,17.0976311 15.2928932,16.7071068 C14.9023689,16.3165825 14.9023689,15.6834175 15.2928932,15.2928932 L23.2928932,7.29289322 C23.6834175,6.90236893 24.3165825,6.90236893 24.7071068,7.29289322 C25.0976311,7.68341751 25.0976311,8.31658249 24.7071068,8.70710678 L16.7071068,16.7071068 Z" id="Line-2" fill="#FFFFFF" fill-rule="nonzero"></path>
                <g id="Line-2" fill-rule="nonzero">
                    <use fill="black" fill-opacity="1" filter="url(#filter-4)" xlink:href="#path-3"></use>
                    <use fill="#FFFFFF" fill-rule="evenodd" xlink:href="#path-3"></use>
                </g>
                <g id="Combined-Shape">
                    <use fill="black" fill-opacity="1" filter="url(#filter-6)" xlink:href="#path-5"></use>
                    <use fill="#E24329" fill-rule="evenodd" xlink:href="#path-5"></use>
                </g>
            </g>
        </g>
    </g>
</svg>